<svg xmlns="http://www.w3.org/2000/svg" xmlns:xlink="http://www.w3.org/1999/xlink" width="0" height="0" style="position:absolute">
	
		<symbol id="btn-email" viewBox="0 0 50 50">
			<title>btn-email</title><g fill="none" fill-rule="evenodd"><circle fill="#F5515F" cx="25" cy="25" r="25"></circle><path d="M25.531 27.041h.006a.961.961 0 0 0 .525-.154l.041-.026.028-.017.476-.394 11.367-9.38a.134.134 0 0 0-.107-.055H13.132c-.03 0-.06.01-.082.03l11.893 9.802c.15.124.363.194.588.194zM13 18.344v13.904l8.52-6.882L13 18.344zm16.49 7.069L38 32.25v-13.86l-8.51 7.022zm-2.706 2.232c-.34.278-.783.432-1.25.432a1.97 1.97 0 0 1-1.249-.43l-1.95-1.61L13 33.578v.024c0 .072.061.133.134.133h24.734c.071 0 .132-.061.132-.133v-.023l-9.326-7.493-1.89 1.56z" fill="#FFF" fill-rule="nonzero"></path></g>
		</symbol>
	
		<symbol id="btn-menu" viewBox="0 0 50 50">
			<title>btn-menu</title><g fill="none" fill-rule="evenodd"><circle fill="#F5515F" cx="25" cy="25" r="25"></circle><g transform="translate(13 16)" fill="#FFF"><path d="M22.7.013H2.3A2.304 2.304 0 0 0 0 2.315c0 1.269 1.032 2.3 2.3 2.3h20.4c1.268 0 2.3-1.031 2.3-2.3A2.304 2.304 0 0 0 22.7.013zM22.7 7.074H2.3A2.304 2.304 0 0 0 0 9.376c0 1.268 1.032 2.3 2.3 2.3h20.4c1.268 0 2.3-1.032 2.3-2.3a2.304 2.304 0 0 0-2.3-2.302zM22.7 14.134H2.3A2.304 2.304 0 0 0 0 16.436c0 1.269 1.032 2.301 2.3 2.301h20.4c1.268 0 2.3-1.032 2.3-2.3a2.304 2.304 0 0 0-2.3-2.303z"></path></g></g>
		</symbol>
	
		<symbol id="btn-to" viewBox="0 0 49 50">
			<title>btn-send(enter-write)</title><path d="M48.333 24.974c0-13.77-10.828-24.97-24.138-24.97-13.31 0-24.138 11.2-24.138 24.97 0 13.769 10.828 24.97 24.138 24.97 13.31 0 24.138-11.201 24.138-24.97zM15.56 30.606a1.962 1.962 0 0 1-2.844 0 2.112 2.112 0 0 1-.59-1.47c0-.533.197-1.066.59-1.472L22.773 17.26a1.962 1.962 0 0 1 2.844 0l10.058 10.404a2.13 2.13 0 0 1 0 2.942 1.962 1.962 0 0 1-2.844 0l-8.636-8.933-8.635 8.933z" fill="#F5515F" fill-rule="nonzero"></path>
		</symbol>
	
		<symbol id="close" viewBox="0 0 329.26933 329">
			<path d="M194.8 164.77L323.013 36.555c8.343-8.34 8.343-21.825 0-30.164-8.34-8.34-21.825-8.34-30.164 0L164.633 134.605 36.422 6.391c-8.344-8.34-21.824-8.34-30.164 0-8.344 8.34-8.344 21.824 0 30.164l128.21 128.215L6.259 292.984c-8.344 8.34-8.344 21.825 0 30.164a21.266 21.266 0 0 0 15.082 6.25c5.46 0 10.922-2.09 15.082-6.25l128.21-128.214 128.216 128.214a21.273 21.273 0 0 0 15.082 6.25c5.46 0 10.922-2.09 15.082-6.25 8.343-8.34 8.343-21.824 0-30.164zm0 0"></path>
		</symbol>
	
		<symbol id="close_" viewBox="0 0 512 512">
			<path d="M256 0C114.844 0 0 114.844 0 256s114.844 256 256 256 256-114.844 256-256S397.156 0 256 0zm103.54 329.374c4.167 4.165 4.167 10.919 0 15.085l-15.08 15.081c-4.167 4.165-10.919 4.165-15.086 0L256 286.167l-73.374 73.374c-4.167 4.165-10.919 4.165-15.086 0l-15.081-15.082c-4.167-4.165-4.167-10.919 0-15.085l73.374-73.375-73.374-73.374c-4.167-4.165-4.167-10.919 0-15.085l15.081-15.082c4.167-4.165 10.919-4.165 15.086 0L256 225.832l73.374-73.374c4.167-4.165 10.919-4.165 15.086 0l15.081 15.082c4.167 4.165 4.167 10.919 0 15.085l-73.374 73.374 73.373 73.375z"></path>
		</symbol>
	
</svg>
